<svg width="32" height="30" viewBox="0 0 32 30" fill="none" xmlns="http://www.w3.org/2000/svg">
<path d="M13.445 2.13381C14.6189 0.234534 17.3811 0.234535 18.555 2.13381L21.5907 7.04527C22.0149 7.73176 22.6976 8.21862 23.4849 8.39615L29.0948 9.66124C31.328 10.1648 32.1995 12.8814 30.6761 14.5901L26.9844 18.7309C26.4324 19.3502 26.161 20.1701 26.2347 20.9964L26.7284 26.5356C26.9285 28.7812 24.6754 30.4386 22.5912 29.5789L17.1454 27.3325C16.4118 27.0299 15.5882 27.0299 14.8546 27.3325L9.40878 29.5789C7.3246 30.4386 5.07146 28.7812 5.27161 26.5356L5.76533 20.9964C5.83898 20.1701 5.56761 19.3502 5.01556 18.7309L1.3239 14.5901C-0.199472 12.8814 0.672044 10.1648 2.90516 9.66124L8.5151 8.39615C9.30236 8.21862 9.98505 7.73176 10.4094 7.04527L13.445 2.13381Z" fill="#F2C94C"/>
</svg>
